Computer Assisted Mass Appraisal - Residential
…
Except one outlier all other have very similar distribution. Lets look at No Data and NA values.

residential_clean_df %>%
  filter(is.na(HEAT_D))

## # A tibble: 112 x 37
##    OBJECTID BATHRM HF_BATHRM  HEAT HEAT_D AC    NUM_UNITS ROOMS BEDRM
##       <int>  <int>     <int> <int> <chr>  <chr>     <int> <int> <int>
##  1     1915     NA        NA    NA <NA>   <NA>         NA    NA    NA
##  2     4382     NA        NA    NA <NA>   <NA>         NA    NA    NA
##  3     4383     NA        NA    NA <NA>   <NA>         NA    NA    NA
##  4    16361     NA        NA    NA <NA>   <NA>         NA    NA    NA
##  5    16362     NA        NA    NA <NA>   <NA>         NA    NA    NA
##  6    16363     NA        NA    NA <NA>   <NA>         NA    NA    NA
##  7    16364     NA        NA    NA <NA>   <NA>         NA    NA    NA
##  8    16365     NA        NA    NA <NA>   <NA>         NA    NA    NA
##  9    16366     NA        NA    NA <NA>   <NA>         NA    NA    NA
## 10    16367     NA        NA    NA <NA>   <NA>         NA    NA    NA
## # ... with 102 more rows, and 28 more variables: AYB <int>, YR_RMDL <int>,
## #   EYB <int>, STORIES <dbl>, SALEDATE <dttm>, PRICE <int>,
## #   QUALIFIED <chr>, SALE_NUM <int>, GBA <int>, BLDG_NUM <int>,
## #   STYLE <int>, STYLE_D <chr>, STRUCT <int>, STRUCT_D <chr>, GRADE <int>,
## #   GRADE_D <chr>, CNDTN <int>, CNDTN_D <chr>, EXTWALL <int>,
## #   EXTWALL_D <chr>, ROOF <int>, ROOF_D <chr>, INTWALL <int>,
## #   INTWALL_D <chr>, KITCHENS <int>, FIREPLACES <int>, USECODE <int>,
## #   LANDAREA <int>
…
